com\Graduation\common\ApplicationContextUtil.class
com\Graduation\Dao\Mappers\UserDao.class
com\Graduation\common\Permission.class
com\Graduation\common\DefaultThreadFactory.class
com\Graduation\common\TokenCleanTask.class
com\Graduation\Config\FTPConfig.class
com\Graduation\Test\Test1.class
com\Graduation\Exception\MainException$ESSearchException.class
com\Graduation\Exception\MainException$FTPDownloadException.class
com\Graduation\Exception\MainException$ESAddException.class
com\Graduation\Pojo\User.class
com\Graduation\Exception\MainException$DocReadException.class
com\Graduation\Utils\SHA256Util.class
com\Graduation\Exception\MainException$FTPUploadException.class
com\Graduation\Dao\FTPDao.class
com\Graduation\Service\SearchService.class
com\Graduation\Utils\RSAUtil.class
com\Graduation\App.class
com\Graduation\Config\ESConfig.class
com\Graduation\Pojo\Thesis.class
com\Graduation\Controller\TouristController.class
com\Graduation\Pojo\Result.class
com\Graduation\Exception\MainException$RedisSearchException.class
com\Graduation\Service\UploadService.class
com\Graduation\Config\RedisConfig.class
com\Graduation\common\Permission$UserType.class
com\Graduation\Exception\MainException$FileTypeException.class
com\Graduation\common\Constants.class
com\Graduation\Config\WebConfig.class
com\Graduation\Exception\MainException$UploadException.class
com\Graduation\Exception\MainException.class
com\Graduation\Controller\UserController.class
com\Graduation\Service\UserService.class
com\Graduation\common\AccessInterceptor.class
com\Graduation\Dao\ESDao.class
com\Graduation\Utils\Log.class
com\Graduation\Utils\TokenUtil.class
com\Graduation\Exception\MainException$FTPConnectionException.class
com\Graduation\Service\DownloadService.class
com\Graduation\Utils\DocUtil.class
com\Graduation\Utils\DateUtil.class
com\Graduation\Exception\ExceptionHandler\MainExceptionHandler.class
